From: vp0a37-σ <vp0a37-σ@comterm1.ltap.vhep>
To: Laketown Command <ltc@ltc.vhep>
To: VHEP Council <councillors@council.vhep>
Delivered-To: Laketown Command <ltc@ltc.vhep>
Received: from relay1.qec1.rs001.l4.earthsys.gov
    by mta2.ltc.vhep
    with ESMTPS id ceDbf2f0f66A25aD
    for <ltc@ltc.vhep>
Received: from relay0.qec2.ganymede.earthsys.gov
    by relay1.qec1.rs001.l4.earthsys.gov
Received: from qec0.helio.earthsys.gov
    by relay0.qec2.ganymede.earthsys.gov
Received: from qec.trap8.ltc.vhep
    by qec0.helio.earthsys.gov
Received: from qec.sltap66
    by qec.trap8.ltc.vhep
Date-Local: 28 Apr 2436 04:26:54 GSRT +0015y
Date: 22 Jan 2463 17:27:44 -0042y
Subject: Mission Status Report 6
Content-Type: text/plain; charset="utf8"

Laketown Command,

QEC Relay at VHE-0j0-η 80% complete.
Estimated time to completion: 255,238 seconds.

Ship modifications complete. Directional Comms test successful.
Adtopted higher orbit around VHE-0j0. Approaching asteroid field.
Estimated time to orbital stability: 4,378 seconds
Estimated time until field equilibrium: 12,933 seconds

Expected communication window between 15 and 80 minutes every 20 days
while Stealth Procedure 7 is in effect.

Orbital transit interval ........................... 1.73x10⁶ seconds
Orbital transit duration ............................... 4800 seconds

                                        VISR Operations Digest Report
Primary mission status .....................................[failure]
Secondary mission status ...................................[pending]
Ship's computers ...............................................[OWP]
Ship's systems .................................................[OWP]
Biosphere systems ..............................................[OWP]
Cryosystems ....................................................[OWP]
Cargo rigging systems............................................[WP]
Internal sensing systems .......................................[OWP]
External sensing systems .......................................[OWP]
Fuel consumption rate ...........................................[WP]

VISR Reports 10 Nav cores have been activated and assigned to passive
observation.

Crew team rotation reports indicate working crew productivity and
satisfaction within expected range.

Log analysis reports 0 system faults.

END MESSAGE.
