BOT
PROTOCOL: NTKA-TXT-LRCOM:BROADCAST-OPEN-1WAY
FROM: SC-Outpost 31416 Dulzagua
COM CLASS: Personal Log
TSA CLEAR: T4M1S3N4 34
KPA CLEAR: KR-1245.444
NUM: 5
LANG: GLOBEN
SUBJECT: My adventures!!!
REPLY: Verboten S32 Minors Protection Volkslaw
       
==================================
 - - - - - - Dulzagua - - - - - -
··································
 --- Early Settlement Outpost ---
==================================

0--|------1---------2---------3---------4---------|

Dear Someone, Dunlin is asking me to join him at 
our 'ntusi. 'Ntusi is a settlers tradition that 
says that kids our age must "run away" to one of
the earliest settlements and make them work.
  Oh, yes, we are on an Early Settlement but an 
island away from us there is an hexagonal cabin 
that was used by the first scouts, before we kids
were allowed to make planet-fall. So that would be
our three weeks 'ntusi. Maybe 4 if it's as dirty
as the others say it is.
  Some say the 'ntusi is only a way for us kids to
do free manteinence on residual infraestructure.
  Traitors and liars!
  :)
  We shall see... Anyway, I'm hopping for a grand
time with Dunlin.  

~ Pioneer Stormbird FTJ
0--|------1---------2---------3---------4---------|
Next line should be blank.
  
EOT
