BOT
PROTOCOL: NTKA-TXT-LRCOM:BROADCAST-OPEN-1WAY
FROM: SC-Outpost 31416 Dulzagua
COM CLASS: Personal Log
TSA CLEAR: T4M1S3N4 34
KPA CLEAR: KR-1245.444
NUM: 7
LANG: GLOBEN
SUBJECT: My adventures!!!
REPLY: Verboten S32 Minors Protection Volkslaw
       
==================================
 - - - - - - Dulzagua - - - - - -
··································
 --- Early Settlement Outpost ---
==================================

0--|------1---------2---------3---------4---------|

Dear Someone, our FTJ local leader came to a school
and gave a speech on social history. So that means
Statesec did hear about that stupid kid and his
lies on our outopst and everything. And he's not 
attending school for a week. Now I feel a bit  
guilty about him. Good thing is that they are not 
cancelling our 'ntusi, so next time I'll be writing
to you from another island.                        
  Dunlin has everything ready, and I have bought   
like a ton of Kosmoskost, because, Kosmoskost is so
good, when you are hungry. That's from a song, BTW.
  We're so excited!
  I don't know what to write, I want to write my
thoughts out, but all I have are feelings of 
excitment! Laaaaaa! Life's so good. 

~ Pioneer Stormbird FTJ
0--|------1---------2---------3---------4---------|
Next line should be blank.
  
EOT
