init qec driver
init layer noiseflrb
seeking node5α65... found
init layer enc.helixgg
fingerprint verified
key verified
neg encoding ttx-2❌
login complete
one@node5α65> loadangles
β 2 4   6 α 5   5 3 β   7 β α
stored
one@node5α65> now harmonics
calculating
... 1❌%
... 2❌%
... 3❌%
... 4❌%
... 5❌%
... 6❌%
... 7❌%
... 8❌%
... 9❌%
... α❌%
... β❌%
... 1❌❌%
stored
one@node5α65> exec harmonicshift
crystal biased ...
applying harmonics ...
❌ ...
1 ...
2 ...
3 ...
4 ...
5 ...
6 ...
7 ...
8 ...
9 ...
α ...
β ...
ramping hyberbolic excitation
....................................
shifting ...
connection lost
