----------------------------------------

Sphere Monk LOG no.0001

----------------------------------------

T.H. 
Ego Sustaination Capsule

Distance from Earth: 10400 pc 135 au

----------------------------------------


I am.


I


am


Again.


You are?
