# Transmission Configuration:
trans_preset: estec
direction: MW;sSOL;p3
# Time Information:
sent: UT:XZ; 211,76,21
human_readable: meta:gregorian; 2046-06-30
human_readable: meta:juche; 135-06-30
# Meta Information:
description: Launch Message: Nordwijk-49
author: admin
---TEXT BEYOND THIS LINE---

~~~~~~~~~~~~~~~~~~~~~~~~~~~~~~~~~~~~~~~~~~~~~~~~~~~~~~~~~~~~~~~

This is an automated message.
